-------------------------------------------------------------------------------
Test set: de.hfu.QueueTest
-------------------------------------------------------------------------------
Tests run: 3, Failures: 0, Errors: 0, Skipped: 0, Time elapsed: 0.165 s - in de.hfu.QueueTest
