-------------------------------------------------------------------------------
Test set: de.hfu.BaseResidentServiceTest
-------------------------------------------------------------------------------
Tests run: 2, Failures: 0, Errors: 0, Skipped: 0, Time elapsed: 0 s - in de.hfu.BaseResidentServiceTest
